# Blender v2.80 (sub 75) OBJ File: ''
# www.blender.org
mtllib triangle.mtl
o Cube
v 0.663313 1.000000 0.098682
v 0.663313 -1.000000 0.098682
v -1.316767 1.000000 -0.182888
vt 0.625000 0.500000
vt 0.625000 0.750000
vt 0.375000 0.750000
vn 0.1408 0.0000 -0.9900
usemtl Material
s off
f 3/1/1 1/2/1 2/3/1
